Taxi - Tip Prediction Project
…
## # A tibble: 3 x 2
##    extra `n()`
##   <fctr> <int>
## 1      0 49462
## 2    0.5 34833
## 3      1 15705

pickup_neighborhood - There are 35 distinct classes of pickup_neighborhood factor variable. Many of the classes have one to twenty observations, thereby we have taken those classes and made a new class Other, for the sole purpose of making a better predictive model.

complete_dataset %>%
  group_by(pickup_neighborhood) %>%
  summarise(n())

## # A tibble: 35 x 2
##          pickup_neighborhood `n()`
##                       <fctr> <int>
##  1              Borough Park    10
##  2    Bronx Park and Fordham     6
##  3 Bushwick and Williamsburg   115
##  4    Canarsie and Flatlands     3
##  5             Central Bronx     6
##  6          Central Brooklyn   103
##  7            Central Harlem   702
##  8            Central Queens     5
##  9       Chelsea and Clinton 27241
## 10               East Harlem   808
## # ... with 25 more rows
…
dropoff_neighborhood: we have applied the same principle as in pickup_neighborhood and decresed the number of classes within the feature.

complete_dataset %>%
  group_by(dropoff_neighborhood) %>%
  summarise(n())

## # A tibble: 41 x 2
##         dropoff_neighborhood `n()`
##                       <fctr> <int>
##  1              Borough Park   107
##  2    Bronx Park and Fordham    59
##  3 Bushwick and Williamsburg   470
##  4    Canarsie and Flatlands    25
##  5             Central Bronx    66
##  6          Central Brooklyn   595
##  7            Central Harlem  1496
##  8            Central Queens    41
##  9       Chelsea and Clinton 24335
## 10               East Harlem  1546
## # ... with 31 more rows
…
